<svg version="1.1" xmlns="http://www.w3.org/2000/svg" xmlns:xlink="http://www.w3.org/1999/xlink" 
	 viewBox="0 0 1136.2 252" xml:space="preserve">
<path fill="#fdc917" d="M0,0.1l0,202.1c35.9,3.3,72.7,11.4,103.5,32.6c49.3,34,103.7,8.9,129.3-4c95.3-48,114,13,190,13
	c102.7,0,103.8-61.3,184.7-20.3c32,16.2,78.8,16,112.7,4c44.3-15.8,86.3-27.5,158.1,3.5c40.3,17.4,86.1,17.4,125.7-1.5
	c32.4-15.4,76.8-27.2,132.2-27.3V0L0,0.1z"/>
</svg>
